Juggernaut
Mirana
Lich

John Doe

H Smith

a
b

candidate_9

candidate_2

candidate_4

candidate_8

candidate_1

candidate_1

candidate_2

candidate_2

candidate_1

candidate_1

candidate_1

candidate_2
candidate_3

candidate_3

candidate_3

candidate_4

candidate_4

candidate_5

candidate_5

candidate_2

candidate_3
